Proxying the efficacy of IL2RA for prevention of type 1 diabetes
…
# A tibble: 0 x 2
# ... with 2 variables: Chrom.x <chr>, Chrom.y <chr>
# i Use `colnames()` to see all variable names

 [1] "Chrom"              "Pos"                "variant_id_prot"   
 [4] "rsid"               "EA_prot"            "NEA_prot"          
 [7] "BETA_prot"          "p_prot"             "minus_log10_p_prot"
[10] "SE_prot"            "N_prot"             "ImpMAF_prot"       
[13] "EAF_prot"           "pos"                "variant_id_T1D"    
[16] "EA_T1D"             "NEA_T1D"            "BETA_T1D"          
[19] "SE_T1D"             "p_T1D"              "EAF_T1D"           

# A tibble: 1,845 x 21
   Chrom      Pos variant~1 rsid  EA_prot NEA_p~2 BETA_~3 p_prot minus~4 SE_prot
   <chr>    <int> <chr>     <chr> <chr>   <chr>     <dbl>  <dbl>   <dbl>   <dbl>
 1 chr4  75023658 4_750236~ rs21~ C       T        0.0047 0.560   0.251  0.00807
 2 chr4  75024974 4_750249~ rs11~ T       C        0.0051 0.528   0.277  0.00809
 3 chr4  75027289 4_750272~ rs48~ C       A        0.0034 0.674   0.171  0.00808
 4 chr4  75039550 4_750395~ rs10~ G       A        0.0031 0.705   0.152  0.00819
 5 chr4  75040313 4_750403~ rs68~ G       T        0.02   0.0535  1.27   0.0104 
 6 chr4  75052091 4_750520~ rs11~ A       G        0.0036 0.659   0.181  0.00816
 7 chr4  75052502 4_750525~ rs18~ C       T        0.0117 0.818   0.0872 0.0509 
 8 chr4  75053266 4_750532~ rs48~ A       T        0.0138 0.136   0.867  0.00925
 9 chr4  75054626 4_750546~ rs10~ T       A        0.0036 0.660   0.181  0.00818
10 chr4  75055003 4_750550~ rs48~ G       C        0.014  0.132   0.880  0.00929
# ... with 1,835 more rows, 11 more variables: N_prot <int>, ImpMAF_prot <dbl>,
#   EAF_prot <dbl>, pos <int>, variant_id_T1D <chr>, EA_T1D <chr>,
#   NEA_T1D <chr>, BETA_T1D <dbl>, SE_T1D <dbl>, p_T1D <chr>, EAF_T1D <dbl>,
#   and abbreviated variable names 1: variant_id_prot, 2: NEA_prot,
#   3: BETA_prot, 4: minus_log10_p_prot
# i Use `print(n = ...)` to see more rows, and `colnames()` to see all variable names
…
