Proxying the efficacy of IL2RA for prevention of type 1 diabetes
…
#none

IL2RA_T1D <- IL2RA_T1D %>% select(-base_pair_location)
IL2RA_T1D <- IL2RA_T1D %>%  
  rename(p_T1D = pval, Pos_T1D=pos,
         EA_T1D=effectAllele, NEA_T1D=otherAllele, BETA_T1D=beta, 
         EAF_T1D=EAF, SE_T1D=SE, variant_id_T1D = id)

#Harmonize variant ID variable names
IL2RA <- inner_join(IL2RA_gwas, IL2RA_T1D, by = "rsid")
IL2RA %>%
  select(rsid, variant_id_prot, variant_id_T1D) %>%
  filter(variant_id_prot != variant_id_T1D)

# A tibble: 15,102 x 3
   rsid        variant_id_prot   variant_id_T1D
   <chr>       <chr>             <chr>         
 1 rs72472173  chr10:5052673:T:C 10_5052673_C_T
 2 rs4881383   chr10:5052676:C:T 10_5052676_T_C
 3 rs782470793 chr10:5052711:C:G 10_5052711_G_C
 4 rs149376616 chr10:5052797:A:G 10_5052797_G_A
 5 rs183726758 chr10:5052974:T:C 10_5052974_C_T
 6 rs184932874 chr10:5053148:T:C 10_5053148_C_T
 7 rs2186176   chr10:5053166:C:G 10_5053166_G_C
 8 rs113793757 chr10:5053310:T:C 10_5053310_C_T
 9 rs10904403  chr10:5053355:T:C 10_5053355_C_T
10 rs181979760 chr10:5053387:T:C 10_5053387_C_T
# ... with 15,092 more rows
# i Use `print(n = ...)` to see more rows
…
coloc_results_IL2RA <- coloc.abf(D1, D2, p1 = 1e-4, p2 = 1e-4, p12 = 1e-5)

PP.H0.abf PP.H1.abf PP.H2.abf PP.H3.abf PP.H4.abf 
 2.28e-46  2.27e-36  1.00e-10  1.00e+00  1.46e-12 
[1] "PP abf for shared variant: 1.46e-10%"

coloc_results_IL2RA$results %>%
  tibble() %>%
  arrange(SNP.PP.H4)

# A tibble: 5,249 x 12
   snp       posit~1   V.df1   z.df1 r.df1 lABF.~2   V.df2   z.df2 r.df2 lABF.~3
   <chr>       <int>   <dbl>   <dbl> <dbl>   <dbl>   <dbl>   <dbl> <dbl>   <dbl>
 1 rs4750531 6492422 3.13e-5  0.0179 0.999   -3.29 1.95e-4  0.235  0.995   -2.64
 2 rs2026432 6465641 6.12e-5  0.141  0.997   -2.95 2.05e-4  0.0556 0.995   -2.64
 3 rs3858254 6476543 5.99e-5  0.0388 0.997   -2.96 2.16e-4 -0.138  0.995   -2.60
 4 rs2296123 6456837 6.51e-5 -0.0867 0.997   -2.92 2.07e-4 -0.104  0.995   -2.63
 5 rs648778  6492630 6.47e-5  0.211  0.997   -2.90 2.15e-4  0.0438 0.995   -2.61
 6 rs109063~ 6369109 6.14e-5 -0.115  0.997   -2.95 2.25e-4  0.206  0.994   -2.57
 7 rs584820  6440857 6.38e-5  0.163  0.997   -2.92 2.08e-4  0.278  0.995   -2.59
 8 rs634492  6493470 6.68e-5  0.196  0.997   -2.89 2.15e-4  0.0175 0.995   -2.62
 9 rs620736  6494346 6.83e-5  0.194  0.997   -2.88 2.17e-4  0.0757 0.995   -2.61
10 rs650652  6498761 6.49e-5  0.199  0.997   -2.91 2.12e-4 -0.299  0.995   -2.58
# ... with 5,239 more rows, 2 more variables: internal.sum.lABF <dbl>,
#   SNP.PP.H4 <dbl>, and abbreviated variable names 1: position, 2: lABF.df1,
#   3: lABF.df2
# i Use `print(n = ...)` to see more rows, and `colnames()` to see all variable names
…
