JAK2
…
#Remove those without a rsid
JAK2 <- JAK2 %>% filter(!is.na(rsid))

#examine how many SNPs have disconcordant EAF <40% OR >60% between the two data sets
JAK2 %>%
  filter(!(EAF_T1D < 0.40 & EAF_prot < 0.40) | (EAF_T1D > 0.60 & EAF_prot > 0.60))

# A tibble: 1,838 x 21
   Chrom     Pos variant_~1 rsid  EA_prot NEA_p~2 BETA_~3 p_prot minus~4 SE_prot
   <chr>   <int> <chr>      <chr> <chr>   <chr>     <dbl>  <dbl>   <dbl>   <dbl>
 1 chr9  3987329 9_3987329~ rs78~ A       G        0.0104  0.203   0.693 0.00817
 2 chr9  3989685 9_3989685~ rs48~ G       C        0.0978  0.675   0.171 0.233  
 3 chr9  3989789 9_3989789~ rs48~ T       C        0.0044  0.629   0.201 0.00911
 4 chr9  3989993 9_3989993~ rs68~ G       A        0.0046  0.613   0.212 0.00910
 5 chr9  3990092 9_3990092~ rs57~ T       A        0.0045  0.616   0.211 0.00897
 6 chr9  3991729 9_3991729~ rs70~ T       C       -0.0123  0.155   0.811 0.00864
 7 chr9  3994090 9_3994090~ rs52~ A       T        0.0901  0.615   0.211 0.179  
 8 chr9  4002823 9_4002823~ rs50~ A       G       -0.0202  0.125   0.903 0.0132 
 9 chr9  4008954 9_4008954~ rs66~ T       C       -0.0171  0.200   0.699 0.0133 
10 chr9  4023987 9_4023987~ rs15~ T       A        0.0028  0.729   0.137 0.00810
# ... with 1,828 more rows, 11 more variables: N_prot <int>, ImpMAF_prot <dbl>,
#   EAF_prot <dbl>, pos <int>, variant_id_T1D <chr>, EA_T1D <chr>,
#   NEA_T1D <chr>, BETA_T1D <dbl>, SE_T1D <dbl>, p_T1D <chr>, EAF_T1D <dbl>,
#   and abbreviated variable names 1: variant_id_prot, 2: NEA_prot,
#   3: BETA_prot, 4: minus_log10_p_prot
# i Use `print(n = ...)` to see more rows, and `colnames()` to see all variable names
…
