Single cell analyses for IL2RA, TYK2, and IL6R
…
── Column specification ────────────────────────────────────────────────────────
Delimiter: ","
chr (2): celltype_long, celltype

ℹ Use `spec()` to retrieve the full column specification for this data.
ℹ Specify the column types or set `show_col_types = FALSE` to quiet this message.

res_final <- res_final %>%
  left_join(sc_names, by = "celltype") %>%
  select(gene, celltype, celltype_long, n_snps, h0, h1, h2, h3, h4)

print(tibble(res_final$h0))

# A tibble: 38 × 1
   `res_final$h0`
            <dbl>
 1              0
 2              0
 3              0
 4              0
 5              0
 6              0
 7              0
 8              0
 9              0
10              0
# ℹ 28 more rows
…
